{
  "name": "wattsim",
  "css_prefix_text": "icon-",
  "css_use_suffix": false,
  "hinting": true,
  "units_per_em": 1000,
  "ascent": 850,
  "glyphs": [
    {
      "uid": "8b80d36d4ef43889db10bc1f0dc9a862",
      "css": "user",
      "code": 59393,
      "src": "fontawesome"
    },
    {
      "uid": "ivmsk67zo1yb1tthd3ugi4xnb3get418",
      "css": "sun",
      "code": 59399,
      "src": "typicons"
    },
    {
      "uid": "b356b6fbb59d7eca7c15fdb055f0401f",
      "css": "wind",
      "code": 59400,
      "src": "typicons"
    },
    {
      "uid": "4efb719e797c54b3c58e5ae061d29d53",
      "css": "droplet",
      "code": 59392,
      "src": "entypo"
    },
    {
      "uid": "3212f42c65d41ed91cb435d0490e29ed",
      "css": "flash",
      "code": 59394,
      "src": "fontawesome"
    },
    {
      "uid": "5adef5b3275fcd874b0815a0637c5800",
      "css": "login",
      "code": 61484,
      "src": "mfglabs"
    },
    {
      "uid": "a6b6f85116fc55e4a7c83d66973035a7",
      "css": "logout",
      "code": 61485,
      "src": "mfglabs"
    },
    {
      "uid": "ccddff8e8670dcd130e3cb55fdfc2fd0",
      "css": "down",
      "code": 59395,
      "src": "fontawesome"
    },
    {
      "uid": "767fede84586366cd7d6c835be745454",
      "css": "smartphone",
      "code": 59396,
      "src": "entypo"
    },
    {
      "uid": "63af7ffdab0d3546333634c63554bb82",
      "css": "fuel",
      "code": 59417,
      "src": "maki"
    }
  ]
}